\relax 
\@writefile{toc}{\contentsline {section}{\numberline {1}Parametrization of multi-density gas}{1}}
\newlabel{e:AMD}{{1}{1}}
\@writefile{toc}{\contentsline {section}{\numberline {2}Relation to physical parameters of CGM clouds}{1}}
\newlabel{e:nH}{{2}{1}}
\newlabel{e:NH}{{4}{2}}
\@writefile{toc}{\contentsline {section}{\numberline {3}Individual sightlines vs.\ average sightlines}{2}}
\@writefile{toc}{\contentsline {section}{\numberline {4}Appendix: algebra}{2}}
\newlabel{e:NH Rimp0}{{8}{2}}
\newlabel{e:NH vs nH}{{10}{2}}
\newlabel{e:dNH/dnH}{{11}{2}}
\newlabel{e:N0 beta}{{14}{3}}
